module gitlab.com/amrta2022/xa

go 1.19

require github.com/starainrt/astro v0.0.0-20220105092628-c0bcbbb42a60

//require github.com/starainrt/astro v0.0.0-20220517045710-51b9f1642f72

retract (
	v1.0.7
	v1.0.6
	v1.0.5
	v1.0.4
	v1.0.3
	v1.0.0
	v0.9.9
	v0.9.6
	v0.9.3
	v0.9.0
	v0.6.9
	v0.6.6
	v0.6.3
	v0.6.0
	v0.3.9
	v0.3.6
	v0.3.0
	v0.0.9
	v0.0.6
	v0.0.3
)
