module gitlab.com/amrta2022/xa/example/cli

go 1.19

require (
	github.com/charmbracelet/lipgloss v0.6.0
	github.com/jwalton/gchalk v1.3.0
	github.com/starainrt/astro v0.0.0-20220105092628-c0bcbbb42a60
	gitlab.com/amrta2022/xa v1.1.8
)

require (
	github.com/jwalton/go-supportscolor v1.1.0 // indirect
	github.com/lucasb-eyer/go-colorful v1.2.0 // indirect
	github.com/mattn/go-isatty v0.0.14 // indirect
	github.com/mattn/go-runewidth v0.0.13 // indirect
	github.com/muesli/reflow v0.2.1-0.20210115123740-9e1d0d53df68 // indirect
	github.com/muesli/termenv v0.11.1-0.20220204035834-5ac8409525e0 // indirect
	github.com/rivo/uniseg v0.2.0 // indirect
	golang.org/x/sys v0.0.0-20211004093028-2c5d950f24ef // indirect
	golang.org/x/term v0.0.0-20210927222741-03fcf44c2211 // indirect
)
